Introduction to R
…
## equivalent to head_interviews <- head(interviews)
head_interviews <- interviews[1:6, ]

Negative Subsetting data frames

# The whole tibble, except the first column
interviews[, -1]          

# A tibble: 131 × 13
   village  interview_date      no_membrs years_…¹ respo…² rooms memb_…³ affec…⁴
   <chr>    <dttm>                  <dbl>    <dbl> <chr>   <dbl> <chr>   <chr>  
 1 God      2016-11-17 00:00:00         3        4 muddaub     1 <NA>    <NA>   
 2 God      2016-11-17 00:00:00         7        9 muddaub     1 yes     once   
 3 God      2016-11-17 00:00:00        10       15 burntb…     1 <NA>    <NA>   
 4 God      2016-11-17 00:00:00         7        6 burntb…     1 <NA>    <NA>   
 5 God      2016-11-17 00:00:00         7       40 burntb…     1 <NA>    <NA>   
 6 God      2016-11-17 00:00:00         3        3 muddaub     1 <NA>    <NA>   
 7 God      2016-11-17 00:00:00         6       38 muddaub     1 no      never  
 8 Chirodzo 2016-11-16 00:00:00        12       70 burntb…     3 yes     never  
 9 Chirodzo 2016-11-16 00:00:00         8        6 burntb…     1 no      never  
10 Chirodzo 2016-12-16 00:00:00        12       23 burntb…     5 no      never  
# … with 121 more rows, 5 more variables: liv_count <dbl>, items_owned <chr>,
#   no_meals <dbl>, months_lack_food <chr>, instanceID <chr>, and abbreviated
#   variable names ¹​years_liv, ²​respondent_wall_type, ³​memb_assoc,
#   ⁴​affect_conflicts
…
Select columns

# to select columns throughout the dataframe
select(interviews, village, no_membrs, months_lack_food)

# A tibble: 131 × 3
   village  no_membrs months_lack_food       
   <chr>        <dbl> <chr>                  
 1 God              3 Jan                    
 2 God              7 Jan;Sept;Oct;Nov;Dec   
 3 God             10 Jan;Feb;Mar;Oct;Nov;Dec
 4 God              7 Sept;Oct;Nov;Dec       
 5 God              7 Aug;Sept;Oct;Nov       
 6 God              3 Aug;Sept;Oct           
 7 God              6 Nov                    
 8 Chirodzo        12 Jan                    
 9 Chirodzo         8 Jan;Dec                
10 Chirodzo        12 Jan;Oct;Nov;Dec        
# … with 121 more rows

# to do the same thing with subsetting
interviews[c("village","no_membrs","months_lack_food")]

# A tibble: 131 × 3
   village  no_membrs months_lack_food       
   <chr>        <dbl> <chr>                  
 1 God              3 Jan                    
 2 God              7 Jan;Sept;Oct;Nov;Dec   
 3 God             10 Jan;Feb;Mar;Oct;Nov;Dec
 4 God              7 Sept;Oct;Nov;Dec       
 5 God              7 Aug;Sept;Oct;Nov       
 6 God              3 Aug;Sept;Oct           
 7 God              6 Nov                    
 8 Chirodzo        12 Jan                    
 9 Chirodzo         8 Jan;Dec                
10 Chirodzo        12 Jan;Oct;Nov;Dec        
# … with 121 more rows

# to select a series of connected columns
select(interviews, village:respondent_wall_type)

# A tibble: 131 × 5
   village  interview_date      no_membrs years_liv respondent_wall_type
   <chr>    <dttm>                  <dbl>     <dbl> <chr>               
 1 God      2016-11-17 00:00:00         3         4 muddaub             
 2 God      2016-11-17 00:00:00         7         9 muddaub             
 3 God      2016-11-17 00:00:00        10        15 burntbricks         
 4 God      2016-11-17 00:00:00         7         6 burntbricks         
 5 God      2016-11-17 00:00:00         7        40 burntbricks         
 6 God      2016-11-17 00:00:00         3         3 muddaub             
 7 God      2016-11-17 00:00:00         6        38 muddaub             
 8 Chirodzo 2016-11-16 00:00:00        12        70 burntbricks         
 9 Chirodzo 2016-11-16 00:00:00         8         6 burntbricks         
10 Chirodzo 2016-12-16 00:00:00        12        23 burntbricks         
# … with 121 more rows

Filtering rows

# filters observations where village name is "Chirodzo"
filter(interviews, village == "Chirodzo")

# A tibble: 39 × 14
   key_ID village  interview_date      no_membrs years_liv respo…¹ rooms memb_…²
    <dbl> <chr>    <dttm>                  <dbl>     <dbl> <chr>   <dbl> <chr>  
 1      8 Chirodzo 2016-11-16 00:00:00        12        70 burntb…     3 yes    
 2      9 Chirodzo 2016-11-16 00:00:00         8         6 burntb…     1 no     
 3     10 Chirodzo 2016-12-16 00:00:00        12        23 burntb…     5 no     
 4     34 Chirodzo 2016-11-17 00:00:00         8        18 burntb…     3 yes    
 5     35 Chirodzo 2016-11-17 00:00:00         5        45 muddaub     1 yes    
 6     36 Chirodzo 2016-11-17 00:00:00         6        23 sunbri…     1 yes    
 7     37 Chirodzo 2016-11-17 00:00:00         3         8 burntb…     1 <NA>   
 8     43 Chirodzo 2016-11-17 00:00:00         7        29 muddaub     1 no     
 9     44 Chirodzo 2016-11-17 00:00:00         2         6 muddaub     1 <NA>   
10     45 Chirodzo 2016-11-17 00:00:00         9         7 muddaub     1 no     
# … with 29 more rows, 6 more variables: affect_conflicts <chr>,
#   liv_count <dbl>, items_owned <chr>, no_meals <dbl>, months_lack_food <chr>,
#   instanceID <chr>, and abbreviated variable names ¹​respondent_wall_type,
#   ²​memb_assoc
…
Cmd + Shift + M if you have a Mac

# standard 
interviews2 <- filter(interviews, village == "Chirodzo")
interviews_ch <- select(interviews2, village:respondent_wall_type)

# piped
interviews_ch <- interviews %>%
    filter(village == "Chirodzo") %>%
    select(village:respondent_wall_type)

interviews_ch

# A tibble: 39 × 5
   village  interview_date      no_membrs years_liv respondent_wall_type
   <chr>    <dttm>                  <dbl>     <dbl> <chr>               
 1 Chirodzo 2016-11-16 00:00:00        12        70 burntbricks         
 2 Chirodzo 2016-11-16 00:00:00         8         6 burntbricks         
 3 Chirodzo 2016-12-16 00:00:00        12        23 burntbricks         
 4 Chirodzo 2016-11-17 00:00:00         8        18 burntbricks         
 5 Chirodzo 2016-11-17 00:00:00         5        45 muddaub             
 6 Chirodzo 2016-11-17 00:00:00         6        23 sunbricks           
 7 Chirodzo 2016-11-17 00:00:00         3         8 burntbricks         
 8 Chirodzo 2016-11-17 00:00:00         7        29 muddaub             
 9 Chirodzo 2016-11-17 00:00:00         2         6 muddaub             
10 Chirodzo 2016-11-17 00:00:00         9         7 muddaub             
# … with 29 more rows

📝2

Using pipes, subset the interviews data to include interviews where respondents were members of an irrigation association (memb_assoc) and retain only the columns affect_conflicts, liv_count, and no_meals.

Solution

interviews %>%
    filter(memb_assoc == "yes") %>%
    select(affect_conflicts, liv_count, no_meals)

# A tibble: 33 × 3
   affect_conflicts liv_count no_meals
   <chr>                <dbl>    <dbl>
 1 once                     3        2
 2 never                    2        2
 3 never                    2        3
 4 once                     3        2
 5 frequently               1        3
 6 more_once                5        2
 7 more_once                3        2
 8 more_once                2        3
 9 once                     3        3
10 never                    3        3
# … with 23 more rows
…
